{
  "prev": {
    "_page": "all",
    "dirname": "_gh_pages/example-000",
    "filename": "alert-03.html",
    "pageName": "alert-03.html",
    "pagename": "alert-03.html",
    "basename": "alert-03",
    "src": "example-000/alert-03.hbs",
    "dest": "_gh_pages/example-000/alert-03.html",
    "assets": "../assets",
    "ext": ".html",
    "extname": ".html",
    "page": "\r\n{{> alert alert.success }}",
    "data": {
      "title": "alert-success",
      "example": "example-000",
      "layout": "example-000/layout.hbs"
    },
    "filePair": {
      "src": [
        "example-000/alert-01.hbs",
        "example-000/alert-02.hbs",
        "example-000/alert-03.hbs",
        "example-000/alert-04.hbs"
      ],
      "dest": "_gh_pages/example-000/",
      "orig": {
        "src": [
          "example-000/alert-*.hbs"
        ],
        "dest": "_gh_pages/example-000/"
      }
    },
    "index": 2,
    "prev": 1,
    "next": 3
  },
  "next": {
    "_page": "all",
    "dirname": "_gh_pages/example-000",
    "filename": "alert-04.html",
    "pageName": "alert-04.html",
    "pagename": "alert-04.html",
    "basename": "alert-04",
    "src": "example-000/alert-04.hbs",
    "dest": "_gh_pages/example-000/alert-04.html",
    "assets": "../assets",
    "ext": ".html",
    "extname": ".html",
    "page": "\r\n{{> alert alert.danger }}",
    "data": {
      "title": "alert-danger",
      "example": "example-000",
      "layout": "example-000/layout.hbs"
    },
    "filePair": {
      "src": [
        "example-000/alert-01.hbs",
        "example-000/alert-02.hbs",
        "example-000/alert-03.hbs",
        "example-000/alert-04.hbs"
      ],
      "dest": "_gh_pages/example-000/",
      "orig": {
        "src": [
          "example-000/alert-*.hbs"
        ],
        "dest": "_gh_pages/example-000/"
      }
    },
    "index": 3,
    "prev": 2
  },
  "totalPages": 4,
  "currentPage": 4,
  "layoutdir": "",
  "layout": "example-000/layout.hbs",
  "layoutext": "",
  "partials": [
    "templates/includes/*.hbs"
  ],
  "assets": "../assets",
  "ext": ".html",
  "site": {
    "dest": "_gh_pages",
    "title": "Bootstrap Components",
    "lead": false,
    "description": "Templates and data for Bootstrap's components.\r\n",
    "license": {
      "type": "MIT License",
      "url": "./license/index.html"
    },
    "blog": "http://assemble.io/blog/",
    "repo": "https://github.com/upstage/bootstrap-templates",
    "download": {
      "source": "https://github.com/upstage/bootstrap-templates/archive/master.zip"
    },
    "google": {
      "analytics": false,
      "site_id": false
    },
    "disqus": {
      "shortname": "bootstrap-templates"
    },
    "social": {
      "twitter": false,
      "facebook": false,
      "gplus": false,
      "hn": false,
      "google": false
    }
  },
  "plugins": [
    null,
    null
  ],
  "contextual": {
    "dest": "tmp/"
  },
  "flatten": true,
  "helpers": [
    "templates/helpers/*.js",
    "handlebars-helper-lorem"
  ],
  "styles": "example-000/styles.css",
  "originalAssets": "_gh_pages/assets",
  "_plugins": [
    "assemble-contrib-contextual",
    "node_modules\\assemble\\lib\\plugins/**/*.js"
  ],
  "engine": "handlebars",
  "sync": true,
  "pages": [
    {
      "_page": "all",
      "dirname": "_gh_pages/example-000",
      "filename": "alert-01.html",
      "pageName": "alert-01.html",
      "pagename": "alert-01.html",
      "basename": "alert-01",
      "src": "example-000/alert-01.hbs",
      "dest": "_gh_pages/example-000/alert-01.html",
      "assets": "../assets",
      "ext": ".html",
      "extname": ".html",
      "page": "\r\n{{> alert alert.default }}\r\n",
      "data": {
        "title": "alert-default",
        "example": "example-000",
        "layout": "example-000/layout.hbs"
      },
      "filePair": {
        "src": [
          "example-000/alert-01.hbs",
          "example-000/alert-02.hbs",
          "example-000/alert-03.hbs",
          "example-000/alert-04.hbs"
        ],
        "dest": "_gh_pages/example-000/",
        "orig": {
          "src": [
            "example-000/alert-*.hbs"
          ],
          "dest": "_gh_pages/example-000/"
        }
      },
      "index": 0,
      "next": 1
    },
    {
      "_page": "all",
      "dirname": "_gh_pages/example-000",
      "filename": "alert-02.html",
      "pageName": "alert-02.html",
      "pagename": "alert-02.html",
      "basename": "alert-02",
      "src": "example-000/alert-02.hbs",
      "dest": "_gh_pages/example-000/alert-02.html",
      "assets": "../assets",
      "ext": ".html",
      "extname": ".html",
      "page": "\r\n{{> alert alert.warning }}\r\n",
      "data": {
        "title": "alert-warning",
        "example": "example-000",
        "layout": "example-000/layout.hbs"
      },
      "filePair": {
        "src": [
          "example-000/alert-01.hbs",
          "example-000/alert-02.hbs",
          "example-000/alert-03.hbs",
          "example-000/alert-04.hbs"
        ],
        "dest": "_gh_pages/example-000/",
        "orig": {
          "src": [
            "example-000/alert-*.hbs"
          ],
          "dest": "_gh_pages/example-000/"
        }
      },
      "index": 1,
      "prev": 0,
      "next": 2
    },
    {
      "_page": "all",
      "dirname": "_gh_pages/example-000",
      "filename": "alert-03.html",
      "pageName": "alert-03.html",
      "pagename": "alert-03.html",
      "basename": "alert-03",
      "src": "example-000/alert-03.hbs",
      "dest": "_gh_pages/example-000/alert-03.html",
      "assets": "../assets",
      "ext": ".html",
      "extname": ".html",
      "page": "\r\n{{> alert alert.success }}",
      "data": {
        "title": "alert-success",
        "example": "example-000",
        "layout": "example-000/layout.hbs"
      },
      "filePair": {
        "src": [
          "example-000/alert-01.hbs",
          "example-000/alert-02.hbs",
          "example-000/alert-03.hbs",
          "example-000/alert-04.hbs"
        ],
        "dest": "_gh_pages/example-000/",
        "orig": {
          "src": [
            "example-000/alert-*.hbs"
          ],
          "dest": "_gh_pages/example-000/"
        }
      },
      "index": 2,
      "prev": 1,
      "next": 3
    },
    {
      "_page": "all",
      "dirname": "_gh_pages/example-000",
      "filename": "alert-04.html",
      "pageName": "alert-04.html",
      "pagename": "alert-04.html",
      "basename": "alert-04",
      "src": "example-000/alert-04.hbs",
      "dest": "_gh_pages/example-000/alert-04.html",
      "assets": "../assets",
      "ext": ".html",
      "extname": ".html",
      "page": "\r\n{{> alert alert.danger }}",
      "data": {
        "title": "alert-danger",
        "example": "example-000",
        "layout": "example-000/layout.hbs"
      },
      "filePair": {
        "src": [
          "example-000/alert-01.hbs",
          "example-000/alert-02.hbs",
          "example-000/alert-03.hbs",
          "example-000/alert-04.hbs"
        ],
        "dest": "_gh_pages/example-000/",
        "orig": {
          "src": [
            "example-000/alert-*.hbs"
          ],
          "dest": "_gh_pages/example-000/"
        }
      },
      "index": 3,
      "prev": 2
    }
  ],
  "tags": [],
  "categories": [],
  "alert": {
    "link": "http://github.com/assemble/assemble/",
    "default": {
      "modifier": "",
      "strong": "Foo",
      "link": "You successfully read <a href=\"http://github.com/assemble/assemble/\" class=\"alert-link\">this important alert message</a>.",
      "text": "Not much going on here."
    },
    "success": {
      "modifier": "alert-success",
      "strong": "Well done!",
      "link": "You successfully read <a href=\"http://github.com/assemble/assemble/\" class=\"alert-link\">this important alert message</a>.",
      "text": "You successfully read this important alert message."
    },
    "info": {
      "modifier": "alert-info",
      "strong": "Heads up!",
      "link": " This <a href=\"http://github.com/assemble/assemble/\" class=\"alert-link\">alert needs your attention</a>, but it's not super important.",
      "text": " This alert needs your attention, but it's not super important."
    },
    "warning": {
      "modifier": "alert-warning",
      "strong": "Warning!",
      "link": "Best check yo self, you're <a href=\"http://github.com/assemble/assemble/\" class=\"alert-link\">not looking too good</a>.",
      "text": "Best check yo self, you're not looking too good."
    },
    "danger": {
      "modifier": "alert-danger",
      "strong": "Oh snap!",
      "link": "<a href=\"http://github.com/assemble/assemble/\" class=\"alert-link\">Change a few things up</a>&nbsp;and try submitting again.",
      "text": "Change a few things up and try submitting again."
    }
  },
  "compose": {},
  "footer": {},
  "head": {},
  "nav-main": {},
  "pager": {},
  "paginate": {},
  "pagination": {
    "prev": {
      "_page": "all",
      "dirname": "_gh_pages/example-000",
      "filename": "alert-03.html",
      "pageName": "alert-03.html",
      "pagename": "alert-03.html",
      "basename": "alert-03",
      "src": "example-000/alert-03.hbs",
      "dest": "_gh_pages/example-000/alert-03.html",
      "assets": "../assets",
      "ext": ".html",
      "extname": ".html",
      "page": "\r\n{{> alert alert.success }}",
      "data": {
        "title": "alert-success",
        "example": "example-000",
        "layout": "example-000/layout.hbs"
      },
      "filePair": {
        "src": [
          "example-000/alert-01.hbs",
          "example-000/alert-02.hbs",
          "example-000/alert-03.hbs",
          "example-000/alert-04.hbs"
        ],
        "dest": "_gh_pages/example-000/",
        "orig": {
          "src": [
            "example-000/alert-*.hbs"
          ],
          "dest": "_gh_pages/example-000/"
        }
      },
      "index": 2,
      "prev": 1,
      "next": 3
    },
    "next": {
      "_page": "all",
      "dirname": "_gh_pages/example-000",
      "filename": "alert-04.html",
      "pageName": "alert-04.html",
      "pagename": "alert-04.html",
      "basename": "alert-04",
      "src": "example-000/alert-04.hbs",
      "dest": "_gh_pages/example-000/alert-04.html",
      "assets": "../assets",
      "ext": ".html",
      "extname": ".html",
      "page": "\r\n{{> alert alert.danger }}",
      "data": {
        "title": "alert-danger",
        "example": "example-000",
        "layout": "example-000/layout.hbs"
      },
      "filePair": {
        "src": [
          "example-000/alert-01.hbs",
          "example-000/alert-02.hbs",
          "example-000/alert-03.hbs",
          "example-000/alert-04.hbs"
        ],
        "dest": "_gh_pages/example-000/",
        "orig": {
          "src": [
            "example-000/alert-*.hbs"
          ],
          "dest": "_gh_pages/example-000/"
        }
      },
      "index": 3,
      "prev": 2
    },
    "totalPages": 4,
    "currentPage": 4
  },
  "post": {},
  "social-buttons": {},
  "ipsum": {
    "notes": "Config options for the {{lorem}} helper.",
    "words": {
      "count": 5,
      "units": "words"
    },
    "sentence": {
      "count": 3,
      "units": "sentences",
      "sentenceLowerBound": 10,
      "sentenceUpperBound": 15,
      "format": "html"
    },
    "paragraph": {
      "count": 3,
      "units": "paragraphs",
      "sentenceLowerBound": 10,
      "sentenceUpperBound": 20,
      "format": "html"
    }
  },
  "main-nav": {
    "left": [],
    "right": []
  },
  "demo": {
    "title": "Example 000: Assemble Pagination",
    "component": "pagination",
    "modifier": "pagination-justified",
    "authors": [
      {
        "name": "Jon Schlinkert",
        "url": "https://github.com/jonschlinkert/"
      },
      {
        "name": "Brian Woodward",
        "url": "https://github.com/doowb/"
      }
    ]
  },
  "title": "alert-danger",
  "example": "example-000",
  "layoutName": "layout",
  "page": {
    "title": "alert-danger",
    "example": "example-000",
    "layout": "example-000/layout.hbs",
    "_page": "all",
    "dirname": "_gh_pages/example-000",
    "filename": "alert-04.html",
    "pageName": "alert-04.html",
    "pagename": "alert-04.html",
    "basename": "alert-04",
    "src": "example-000/alert-04.hbs",
    "dest": "_gh_pages/example-000/alert-04.html",
    "assets": "../assets",
    "ext": ".html",
    "extname": ".html",
    "page": "\r\n{{> alert alert.danger }}",
    "data": {
      "title": "alert-danger",
      "example": "example-000",
      "layout": "example-000/layout.hbs"
    },
    "filePair": {
      "src": [
        "example-000/alert-01.hbs",
        "example-000/alert-02.hbs",
        "example-000/alert-03.hbs",
        "example-000/alert-04.hbs"
      ],
      "dest": "_gh_pages/example-000/",
      "orig": {
        "src": [
          "example-000/alert-*.hbs"
        ],
        "dest": "_gh_pages/example-000/"
      }
    },
    "index": 3,
    "prev": 2
  },
  "dirname": "_gh_pages/example-000",
  "absolute": "_gh_pages/example-000/alert-04.html",
  "filename": "alert-04.html",
  "pageName": "alert-04.html",
  "pagename": "alert-04.html",
  "basename": "alert-04",
  "extname": ".html",
  "knownHelpers": {
    "helperMissing": true,
    "blockHelperMissing": true,
    "each": true,
    "if": true,
    "unless": true,
    "with": true,
    "log": true
  }
}